[gd_scene load_steps=6 format=2]

[ext_resource path="res://player/player.gd" type="Script" id=1]

[sub_resource type="CapsuleMesh" id=1]

[sub_resource type="SpatialMaterial" id=2]
albedo_color = Color( 1, 0.258824, 0, 1 )

[sub_resource type="CubeMesh" id=4]
size = Vector3( 1, 1, 1 )

[sub_resource type="CapsuleShape" id=3]

[node name="player" type="RigidBody"]
mode = 2
contacts_reported = 2
script = ExtResource( 1 )

[node name="body_mesh" type="MeshInstance" parent="."]
transform = Transform( 1, 0, 0, 0, -1.62921e-07, -1, 0, 1, -1.62921e-07, 0, 0, 0 )
mesh = SubResource( 1 )
material/0 = SubResource( 2 )

[node name="head_mesh" type="MeshInstance" parent="."]
transform = Transform( 1, 0, 0, 0, 1, 0, 0, 0, 1, 0, 2.06267, 0 )
mesh = SubResource( 4 )
material/0 = null

[node name="CollisionShape" type="CollisionShape" parent="."]
transform = Transform( 1, 0, 0, 0, -1.62921e-07, -1, 0, 1, -1.62921e-07, 0, 0, 0 )
shape = SubResource( 3 )
[connection signal="body_entered" from="." to="." method="_on_player_body_entered"]
