[gd_scene load_steps=6 format=2]

[ext_resource path="res://planets/planet.gd" type="Script" id=1]

[sub_resource type="SphereMesh" id=1]
radius = 20.0
height = 40.0

[sub_resource type="SpatialMaterial" id=2]
albedo_color = Color( 0.376471, 0.564706, 1, 1 )

[sub_resource type="SphereShape" id=3]
radius = 20.0

[sub_resource type="SphereShape" id=4]
radius = 40.0

[node name="planet_earth" type="StaticBody"]
script = ExtResource( 1 )

[node name="MeshInstance" type="MeshInstance" parent="."]
mesh = SubResource( 1 )
material/0 = SubResource( 2 )

[node name="CollisionShape" type="CollisionShape" parent="."]
shape = SubResource( 3 )

[node name="Area" type="Area" parent="."]
space_override = 2
gravity_point = true
gravity = 20.0

[node name="CollisionShape" type="CollisionShape" parent="Area"]
shape = SubResource( 4 )
[connection signal="body_entered" from="Area" to="." method="_on_Area_body_entered"]
[connection signal="body_exited" from="Area" to="." method="_on_Area_body_exited"]
